Lab 5 assignment: Group 6
…
5.3.3 Convert multi-peptide cells to one peptide per row and validate sequences

Quantify peptides per row

The Amino Acids columncan contain several peptides separated by commas. Counting them provides a quick check on multiplicity and tells us how much the row count will grow once each peptide is placed on its own row.

## stringr::str_count()

peptide_data <- peptide_data |> 
  mutate(n_peptides = str_count(`Amino Acids`,
                                pattern = ",") + 1)
peptide_data

# A tibble: 154,320 × 6
   Experiment CDR3b              V_gene     J_gene     `Amino Acids`  n_peptides
   <chr>      <chr>              <chr>      <chr>      <chr>               <dbl>
 1 eAV93      CASSAQGTGDRGYTF    TCRBV27-01 TCRBJ01-02 ADAGFIKQY,AEL…          4
 2 eOX56      CASSLVATGNTGELFF   TCRBV07-09 TCRBJ02-02 ADAGFIKQY,AEL…          4
 3 eAV93      CASSKGTVSGLSG      TCRBV21-01 TCRBJ02-07 ADAGFIKQY,AEL…          4
 4 eQD124     CALKVGADTQYF       TCRBV30-01 TCRBJ02-03 ADAGFIKQY,AEL…          4
 5 eAV93      CASSLWASGRGGTGELFF TCRBV27-01 TCRBJ02-02 ADAGFIKQY,AEL…          4
 6 eMR16      CASSLLGWEQLDEQFF   TCRBV27-01 TCRBJ02-01 ADAGFIKQY,AEL…          4
 7 eAV93      CASSSGTGVYGYTF     TCRBV12-X  TCRBJ01-02 ADAGFIKQY,AEL…          4
 8 eQD123     CASSPLEWEGVTEAFF   TCRBV06-X  TCRBJ01-01 ADAGFIKQY,AEL…          4
 9 eAV93      CASSFWSSGRGGTDTQYF TCRBV27-01 TCRBJ02-03 ADAGFIKQY,AEL…          4
10 eMR15      CASSAGQGASDEQFF    TCRBV07-09 TCRBJ02-01 ADAGFIKQY,AEL…          4
# ℹ 154,310 more rows
…
Reshape to one peptide per row

The temporary wide columns are then pivoted into a single peptide column, yielding one peptide per row and enabling valid counts and sequence logos. The row count increases predictably: a row listing k peptides becomes k rows.

peptide_data <- peptide_data |> 
  pivot_longer(cols = contains("peptide_"),
               names_to = "peptide_n",
               values_to = "peptide")
peptide_data

# A tibble: 2,006,160 × 7
   Experiment CDR3b           V_gene     J_gene     n_peptides peptide_n peptide
   <chr>      <chr>           <chr>      <chr>           <dbl> <chr>     <chr>  
 1 eAV93      CASSAQGTGDRGYTF TCRBV27-01 TCRBJ01-02          4 peptide_1 ADAGFI…
 2 eAV93      CASSAQGTGDRGYTF TCRBV27-01 TCRBJ01-02          4 peptide_2 AELEGI…
 3 eAV93      CASSAQGTGDRGYTF TCRBV27-01 TCRBJ01-02          4 peptide_3 LADAGF…
 4 eAV93      CASSAQGTGDRGYTF TCRBV27-01 TCRBJ01-02          4 peptide_4 TLADAG…
 5 eAV93      CASSAQGTGDRGYTF TCRBV27-01 TCRBJ01-02          4 peptide_5 <NA>   
 6 eAV93      CASSAQGTGDRGYTF TCRBV27-01 TCRBJ01-02          4 peptide_6 <NA>   
 7 eAV93      CASSAQGTGDRGYTF TCRBV27-01 TCRBJ01-02          4 peptide_7 <NA>   
 8 eAV93      CASSAQGTGDRGYTF TCRBV27-01 TCRBJ01-02          4 peptide_8 <NA>   
 9 eAV93      CASSAQGTGDRGYTF TCRBV27-01 TCRBJ01-02          4 peptide_9 <NA>   
10 eAV93      CASSAQGTGDRGYTF TCRBV27-01 TCRBJ01-02          4 peptide_… <NA>   
# ℹ 2,006,150 more rows
…
[1] 2006160       7

This change from wide to long data results in a larger amount of observations, changing from 154320 to 2006160

Remove staging variables and empty rows

Helper fields (n_peptides, peptide_n) are dropped, empty peptides are removed, and duplicates are collapsed. This prevents blanks or repeats from affecting the motif frequencies.

peptide_data <- peptide_data |> 
  select(-n_peptides, -peptide_n) |> 
  drop_na(peptide) |> 
  distinct()
peptide_data

# A tibble: 583,309 × 5
   Experiment CDR3b            V_gene     J_gene     peptide   
   <chr>      <chr>            <chr>      <chr>      <chr>     
 1 eAV93      CASSAQGTGDRGYTF  TCRBV27-01 TCRBJ01-02 ADAGFIKQY 
 2 eAV93      CASSAQGTGDRGYTF  TCRBV27-01 TCRBJ01-02 AELEGIQY  
 3 eAV93      CASSAQGTGDRGYTF  TCRBV27-01 TCRBJ01-02 LADAGFIKQY
 4 eAV93      CASSAQGTGDRGYTF  TCRBV27-01 TCRBJ01-02 TLADAGFIK 
 5 eOX56      CASSLVATGNTGELFF TCRBV07-09 TCRBJ02-02 ADAGFIKQY 
 6 eOX56      CASSLVATGNTGELFF TCRBV07-09 TCRBJ02-02 AELEGIQY  
 7 eOX56      CASSLVATGNTGELFF TCRBV07-09 TCRBJ02-02 LADAGFIKQY
 8 eOX56      CASSLVATGNTGELFF TCRBV07-09 TCRBJ02-02 TLADAGFIK 
 9 eAV93      CASSKGTVSGLSG    TCRBV21-01 TCRBJ02-07 ADAGFIKQY 
10 eAV93      CASSKGTVSGLSG    TCRBV21-01 TCRBJ02-07 AELEGIQY  
# ℹ 583,299 more rows
…
Keep only valid amino-acid strings.

For biological validity, sequences are limited to the 20 proteogenic amino acids for both CDR3β and peptides, removing artefacts that would distort the logos.

clean_amino_acids <- function(x){
  # str_detect(x, pattern = "^[ARNDCQEGHILKMFPSTWYV]+$") will also work
  return( str_detect(x, pattern = "[^ARNDCQEGHILKMFPSTWYV]", negate = TRUE) )
}
peptide_data <- peptide_data |> 
  filter(clean_amino_acids(CDR3b),
         clean_amino_acids(peptide))
peptide_data

# A tibble: 578,357 × 5
   Experiment CDR3b            V_gene     J_gene     peptide   
   <chr>      <chr>            <chr>      <chr>      <chr>     
 1 eAV93      CASSAQGTGDRGYTF  TCRBV27-01 TCRBJ01-02 ADAGFIKQY 
 2 eAV93      CASSAQGTGDRGYTF  TCRBV27-01 TCRBJ01-02 AELEGIQY  
 3 eAV93      CASSAQGTGDRGYTF  TCRBV27-01 TCRBJ01-02 LADAGFIKQY
 4 eAV93      CASSAQGTGDRGYTF  TCRBV27-01 TCRBJ01-02 TLADAGFIK 
 5 eOX56      CASSLVATGNTGELFF TCRBV07-09 TCRBJ02-02 ADAGFIKQY 
 6 eOX56      CASSLVATGNTGELFF TCRBV07-09 TCRBJ02-02 AELEGIQY  
 7 eOX56      CASSLVATGNTGELFF TCRBV07-09 TCRBJ02-02 LADAGFIKQY
 8 eOX56      CASSLVATGNTGELFF TCRBV07-09 TCRBJ02-02 TLADAGFIK 
 9 eAV93      CASSKGTVSGLSG    TCRBV21-01 TCRBJ02-07 ADAGFIKQY 
10 eAV93      CASSKGTVSGLSG    TCRBV21-01 TCRBJ02-07 AELEGIQY  
# ℹ 578,347 more rows
…
Reshape HLA genotype to long format

The six allele columns are gathered into two fields—Gene and Allele—so that each row represents a single allele for a given experiment.

meta_data <- meta_data |> 
  pivot_longer(cols = c("A1", "A2", "B1", "B2", "C1", "C2"),
               names_to = "Gene",
               values_to = "Allele")
meta_data

# A tibble: 864 × 10
   Experiment Subject `Cell Type` `Target Type` Cohort    Age Gender Race  Gene 
   <chr>        <dbl> <chr>       <chr>         <chr>   <dbl> <chr>  <chr> <chr>
 1 eAM13          844 PBMC        C19_cI        COVID-…    34 F      White A1   
 2 eAM13          844 PBMC        C19_cI        COVID-…    34 F      White A2   
 3 eAM13          844 PBMC        C19_cI        COVID-…    34 F      White B1   
 4 eAM13          844 PBMC        C19_cI        COVID-…    34 F      White B2   
 5 eAM13          844 PBMC        C19_cI        COVID-…    34 F      White C1   
 6 eAM13          844 PBMC        C19_cI        COVID-…    34 F      White C2   
 7 eAM23         5422 PBMC        C19_cI        COVID-…    48 M      <NA>  A1   
 8 eAM23         5422 PBMC        C19_cI        COVID-…    48 M      <NA>  A2   
 9 eAM23         5422 PBMC        C19_cI        COVID-…    48 M      <NA>  B1   
10 eAM23         5422 PBMC        C19_cI        COVID-…    48 M      <NA>  B2   
# ℹ 854 more rows
# ℹ 1 more variable: Allele <chr>

Keep the join key and the allele only.

The peptide_data and the meta_data share the Experiment variable. The two variables of interest are experiment and allele, which are selected:

meta_data <- meta_data |> 
  select(Experiment, Allele) |> 
  distinct()
meta_data

# A tibble: 761 × 2
   Experiment Allele    
   <chr>      <chr>     
 1 eAM13      A*02:01:01
 2 eAM13      A*02:05:01
 3 eAM13      B*08:01:01
 4 eAM13      B*41:01:01
 5 eAM13      C*07:01:01
 6 eAM23      A*11:01:01
 7 eAM23      A*24:02:01
 8 eAM23      B*15:01:01
 9 eAM23      B*52:01:01
10 eAM23      C*04:01:01
# ℹ 751 more rows

Standardize allele names

Two fields are included; allele group, and specific HLA protein, along with a new variable Allele_F_1_2. The ...x (where x is a number) subscripts from the Genevariable are removed. We are also removing NA and “” via drop_na, which are empty entries.

# stringr::str_extract()

meta_data <- meta_data |>
  mutate(Allele_F_1_2 = str_extract(Allele,
                                    pattern = "^[ABC]\\*\\d+\\:\\d+")) |>
  filter(Allele_F_1_2 != "") |> 
  drop_na()
meta_data

# A tibble: 748 × 3
   Experiment Allele     Allele_F_1_2
   <chr>      <chr>      <chr>       
 1 eAM13      A*02:01:01 A*02:01     
 2 eAM13      A*02:05:01 A*02:05     
 3 eAM13      B*08:01:01 B*08:01     
 4 eAM13      B*41:01:01 B*41:01     
 5 eAM13      C*07:01:01 C*07:01     
 6 eAM23      A*11:01:01 A*11:01     
 7 eAM23      A*24:02:01 A*24:02     
 8 eAM23      B*15:01:01 B*15:01     
 9 eAM23      B*52:01:01 B*52:01     
10 eAM23      C*04:01:01 C*04:01     
# ℹ 738 more rows

Removing the asterisk ( i.e. *) and redundant variables:

The allele asterisk is removed to make the string easier to read and compare, the temporary column is renamed back to Allele, and duplicates are collapsed.

meta_data <- meta_data |> 
  mutate(Allele_F_1_2 = str_remove(Allele_F_1_2, "\\*")) |> 
  select(-Allele) |>
  rename(Allele = Allele_F_1_2) |> 
  distinct()
meta_data

# A tibble: 748 × 2
   Experiment Allele
   <chr>      <chr> 
 1 eAM13      A02:01
 2 eAM13      A02:05
 3 eAM13      B08:01
 4 eAM13      B41:01
 5 eAM13      C07:01
 6 eAM23      A11:01
 7 eAM23      A24:02
 8 eAM23      B15:01
 9 eAM23      B52:01
10 eAM23      C04:01
# ℹ 738 more rows
…
Returning to the two aims of the report, we analyse what characterises peptides that bind HLA class I, and what characterises T-cell receptors (CDR3β) that recognise a fixed pMHC complex.

We address both questions with sequence logos. To keep logos comparable across samples, we first determine typical sequence lengths and then restrict analyses to those lengths.

6.1 Determine lenght of CDR3β and peptide

We record sequence lengths for CDR3β and peptides to use as filters in the logo analyses.

peptide_meta_data <- peptide_meta_data |> 
  mutate(k_CDR3b = str_length(CDR3b),
         k_peptide = str_length(peptide))
peptide_meta_data

# A tibble: 3,268,217 × 8
   Experiment CDR3b           V_gene     J_gene peptide Allele k_CDR3b k_peptide
   <chr>      <chr>           <chr>      <chr>  <chr>   <chr>    <int>     <int>
 1 eAV93      CASSAQGTGDRGYTF TCRBV27-01 TCRBJ… ADAGFI… A11:01      15         9
 2 eAV93      CASSAQGTGDRGYTF TCRBV27-01 TCRBJ… ADAGFI… A68:01      15         9
 3 eAV93      CASSAQGTGDRGYTF TCRBV27-01 TCRBJ… ADAGFI… B35:01      15         9
 4 eAV93      CASSAQGTGDRGYTF TCRBV27-01 TCRBJ… ADAGFI… B35:03      15         9
 5 eAV93      CASSAQGTGDRGYTF TCRBV27-01 TCRBJ… ADAGFI… C03:03      15         9
 6 eAV93      CASSAQGTGDRGYTF TCRBV27-01 TCRBJ… ADAGFI… C04:01      15         9
 7 eAV93      CASSAQGTGDRGYTF TCRBV27-01 TCRBJ… AELEGI… A11:01      15         8
 8 eAV93      CASSAQGTGDRGYTF TCRBV27-01 TCRBJ… AELEGI… A68:01      15         8
 9 eAV93      CASSAQGTGDRGYTF TCRBV27-01 TCRBJ… AELEGI… B35:01      15         8
10 eAV93      CASSAQGTGDRGYTF TCRBV27-01 TCRBJ… AELEGI… B35:03      15         8
# ℹ 3,268,207 more rows
…
